…
b

data.long <- gather(data.table, education, AvgSalary, "10th":"Some-college")
data.long

## # A tibble: 225 x 4
## # Groups:   occupation [15]
##           occupation   `<NA>` education AvgSalary
##               <fctr>    <dbl>     <chr>     <dbl>
##  1      Adm-clerical 29722.61      10th  29957.97
##  2      Armed-Forces 48635.00      10th        NA
##  3      Craft-repair 35800.19      10th  35271.21
##  4   Exec-managerial 36365.31      10th  38655.33
##  5   Farming-fishing 33999.88      10th  32535.09
##  6 Handlers-cleaners 32224.45      10th  32047.00
##  7 Machine-op-inspct 28159.49      10th  32183.33
##  8     Other-service 31881.76      10th  30484.64
##  9   Priv-house-serv 34069.25      10th  33172.00
## 10    Prof-specialty 37524.00      10th  45071.67
## # ... with 215 more rows
…
